module gitlab.com/gitlab-org/release-tools/metrics

go 1.15

require (
	github.com/gorilla/mux v1.8.0
	github.com/prometheus/client_golang v1.11.0
	github.com/sirupsen/logrus v1.8.1
	github.com/stretchr/testify v1.7.0
	gitlab.com/gitlab-org/labkit v1.4.1
	gopkg.in/yaml.v3 v3.0.0-20200605160147-a5ece683394c // indirect
)
